Sequential V1 (just images) - random initial matrix
run, matrix size, time steps, #live cells, total time (s)
1, 1024x1024, 300, 65641, 12
2, 1024x1024, 300, 68915, 11
3, 1024x1024, 300, 65499, 11
4, 2048x2048, 300, 263870, 60
5, 2048x2048, 300, 270315, 59
6, 2048x2048, 300, 266020, 58
7, 4096x4096, 300, 1081594, 313
8, 4096x4096, 300, 1072567, 309
9, 4096x4096, 300, 1074599, 312

Sequential V1 (just images) - same initial matrix (each size has one)
run, matrix size, time steps, #live cells, total time (s)
1, 1024x1024, 300, 66895, 10.529
2, 1024x1024, 300, 66895, 10.583
3, 1024x1024, 300, 66895, 12.967
4, 2048x2048, 300, 264446, 58.090
5, 2048x2048, 300, 264446, 72.313
6, 2048x2048, 300, 264446, 65.306
7, 4096x4096, 300, 1079016, 309.508
8, 4096x4096, 300, 1079016, 362.413
9, 4096x4096, 300, 1079016, 336.015

Parallel V1 (just images) - same initial matrix (each size has one)
run, matrix size, time steps, #live cells, #threads, total time (s)
1, 1024x1024, 300, 66895, 2, 12.020
2, 1024x1024, 300, 66895, 2, 10.788
3, 1024x1024, 300, 66895, 2, 11.212
4, 1024x1024, 300, 66895, 4, 10.629
5, 1024x1024, 300, 66895, 4, 11.777
6, 1024x1024, 300, 66895, 4, 12.195
7, 1024x1024, 300, 66895, 8, 10.359
8, 1024x1024, 300, 66895, 8, 11.819
9, 1024x1024, 300, 66895, 8, 10.195

10, 2048x2048, 300, 264446, 2, 57.934
11, 2048x2048, 300, 264446, 2, 59.318
12, 2048x2048, 300, 264446, 2, 56.987
13, 2048x2048, 300, 264446, 4, 62.042
14, 2048x2048, 300, 264446, 4, 52.117
15, 2048x2048, 300, 264446, 4, 57.620
16, 2048x2048, 300, 264446, 8, 54.475
17, 2048x2048, 300, 264446, 8, 54.938
18, 2048x2048, 300, 264446, 8, 55.084

19, 4096x4096, 300, 1079016, 2, 272.662
20, 4096x4096, 300, 1079016, 2, 270.944
21, 4096x4096, 300, 1079016, 2, 279.445
22, 4096x4096, 300, 1079016, 4, 247.065
23, 4096x4096, 300, 1079016, 4, 251.695
24, 4096x4096, 300, 1079016, 4, 250.925
25, 4096x4096, 300, 1079016, 8, 259.832
26, 4096x4096, 300, 1079016, 8, 265.666
27, 4096x4096, 300, 1079016, 8, 288.642

Parallel V1 (just images) - same initial matrix (each size has one) - static scheduling
run, matrix size, time steps, #live cells, #threads, chunk size, total time (s)
1, 2048x2048, 300, 264446, 8, 1, 55.217
2, 2048x2048, 300, 264446, 8, 1, 50.738
3, 2048x2048, 300, 264446, 8, 1, 57.467
4, 2048x2048, 300, 264446, 8, 2, 53.557
5, 2048x2048, 300, 264446, 8, 2, 69.572
6, 2048x2048, 300, 264446, 8, 2, 68.763
7, 2048x2048, 300, 264446, 8, 4, 50.148
8, 2048x2048, 300, 264446, 8, 4, 49.134
9, 2048x2048, 300, 264446, 8, 4, 52.074
10, 2048x2048, 300, 264446, 8, 8, 50.676
11, 2048x2048, 300, 264446, 8, 8, 61.490
12, 2048x2048, 300, 264446, 8, 8, 57.635
13, 2048x2048, 300, 264446, 8, 16, 55.194
14, 2048x2048, 300, 264446, 8, 16, 57.010
15, 2048x2048, 300, 264446, 8, 16, 53.293

Parallel V1 (just images) - same initial matrix (each size has one) - dynamic scheduling
run, matrix size, time steps, #live cells, #threads, chunk size, total time (s)
1, 2048x2048, 300, 264446, 8, 1, 53.584
2, 2048x2048, 300, 264446, 8, 1, 56.570
3, 2048x2048, 300, 264446, 8, 1, 58.188
4, 2048x2048, 300, 264446, 8, 2, 51.585
5, 2048x2048, 300, 264446, 8, 2, 48.761
6, 2048x2048, 300, 264446, 8, 2, 58.878
7, 2048x2048, 300, 264446, 8, 4, 53.288
8, 2048x2048, 300, 264446, 8, 4, 58.533
9, 2048x2048, 300, 264446, 8, 4, 50.121
10, 2048x2048, 300, 264446, 8, 8, 51.314
11, 2048x2048, 300, 264446, 8, 8, 50.644
12, 2048x2048, 300, 264446, 8, 8, 51.371
13, 2048x2048, 300, 264446, 8, 16, 55.925
14, 2048x2048, 300, 264446, 8, 16, 53.852
15, 2048x2048, 300, 264446, 8, 16, 54.359

Parallel V1 (just images) - same initial matrix (each size has one) - guided scheduling
run, matrix size, time steps, #live cells, #threads, chunk size, total time (s)
1, 2048x2048, 300, 264446, 8, 1, 54.220
2, 2048x2048, 300, 264446, 8, 1, 53.251
3, 2048x2048, 300, 264446, 8, 1, 56.556
4, 2048x2048, 300, 264446, 8, 2, 51.164
5, 2048x2048, 300, 264446, 8, 2, 55.265
6, 2048x2048, 300, 264446, 8, 2, 50.570
7, 2048x2048, 300, 264446, 8, 4, 57.401
8, 2048x2048, 300, 264446, 8, 4, 56.592
9, 2048x2048, 300, 264446, 8, 4, 51.201
10, 2048x2048, 300, 264446, 8, 8, 53.991
11, 2048x2048, 300, 264446, 8, 8, 49.334
12, 2048x2048, 300, 264446, 8, 8, 50.756
13, 2048x2048, 300, 264446, 8, 16, 53.297
14, 2048x2048, 300, 264446, 8, 16, 51.468
15, 2048x2048, 300, 264446, 8, 16, 56.431
